{
    "swagger": "2.0",
    "info": {
        "title": "JPA GATEWAY API",
        "description": "API Untuk Akses Ke Gateway",
        "version": "1.0.0",
        "contact": {
            "email": "edyprasetiyoo@gmail.com"
        }
    },
    "basePath": "/web",
    "paths": {
        "/controllermodule/addnewcontroller": {
            "get": {
                "tags": [
                    "controllermodule"
                ],
                "description": "API Membuat Tag Baru",
                "operationId": "ControllerController.Addnewcontroller",
                "parameters": [
                    {
                        "in": "body",
                        "name": "body",
                        "description": "body for user content",
                        "schema": {
                            "$ref": "#/definitions/.ControllerListForAddNew"
                        }
                    }
                ],
                "responses": {
                    "200": {
                        "schema": {
                            "$ref": "#/definitions/.responseWeb"
                        }
                    },
                    "403": {
                        "description": ":  empty data"
                    }
                }
            }
        },
        "/controllermodule/deletecontroller": {
            "get": {
                "tags": [
                    "controllermodule"
                ]
            }
        },
        "/controllermodule/gettablecontroller": {
            "get": {
                "tags": [
                    "controllermodule"
                ]
            }
        },
        "/controllermodule/updatecontroller": {
            "post": {
                "tags": [
                    "controllermodule"
                ]
            }
        },
        "/controllermodule/updatecontrollermultiplecontroller": {
            "post": {
                "tags": [
                    "controllermodule"
                ]
            }
        },
        "/tagmodule/buattagbaru": {
            "post": {
                "tags": [
                    "tagmodule"
                ]
            }
        },
        "/tagmodule/deletetabletags": {
            "post": {
                "tags": [
                    "tagmodule"
                ]
            }
        },
        "/tagmodule/gettabletags": {
            "get": {
                "tags": [
                    "tagmodule"
                ]
            }
        },
        "/tagmodule/updatetagbyselectrow": {
            "post": {
                "tags": [
                    "tagmodule"
                ]
            }
        },
        "/tcpmodule/getmodbustcpsetting": {
            "get": {
                "tags": [
                    "tcpmodule"
                ]
            }
        },
        "/usbportmodule/getportalias": {
            "get": {
                "tags": [
                    "usbportmodule"
                ]
            }
        },
        "/usbportmodule/getportavailable": {
            "get": {
                "tags": [
                    "usbportmodule"
                ]
            }
        },
        "/usbportmodule/updateportalias": {
            "post": {
                "tags": [
                    "usbportmodule"
                ]
            }
        }
    },
    "definitions": {
        ".ControllerListForAddNew": {
            "type": "object"
        },
        ".responseWeb": {
            "type": "object"
        }
    },
    "tags": [
        {
            "name": "tagmodule",
            "description": "TagController ...\n"
        },
        {
            "name": "controllermodule",
            "description": "ControllerController ...\n"
        },
        {
            "name": "usbportmodule",
            "description": "UsbController ...\n"
        },
        {
            "name": "tcpmodule",
            "description": "TcepekController ...\n"
        }
    ]
}